
<svg xmlns="http://www.w3.org/2000/svg" version="1.1" xmlns:xlink="http://www.w3.org/1999/xlink" preserveAspectRatio="none" x="0px" y="0px" width="198px" height="48px" viewBox="0 0 198 48">
<defs/>

<g id="Layer_1">
<g transform="matrix( 1, 0, 0, 1, 0,0) ">
<g>
<g>
<path fill="#1D1C1A" stroke="none" d="
M 36.3 40.1
L 34.8 40.1 34.8 41.7 36.3 41.7 36.3 40.1
M 32.25 35.1
L 34.75 35.1 34.75 33.8 28.35 33.8 28.35 35.1 30.85 35.1 30.85 41.7 32.25 41.7 32.25 35.1
M 15.15 35
L 15.15 33.8 9.35 33.8 9.35 41.6 15.25 41.6 15.25 40.4 10.65 40.4 10.65 38.3 14.65 38.3 14.65 37.1 10.65 37.1 10.65 35 15.15 35
M 19.9 34.25
Q 19.1 34.85 19.1 35.9 19.1 36.95 19.75 37.5 20.35 38 21.75 38.3 23.5 38.65 23.5 39.5 23.5 40.5 22.1 40.5 20.65 40.5 19.6 39.5
L 18.85 40.5
Q 20.3 41.9 22.25 41.65 23.45 41.65 24.2 41 25 40.35 25 39.25 25 38.3 24.4 37.75 23.85 37.25 22.5 36.95 20.6 36.55 20.6 35.75 20.6 35.35 20.95 35.1 21.3 34.8 21.9 34.8 22.9 34.8 24 35.6
L 24.75 34.6
Q 23.6 33.6 21.85 33.6 20.65 33.6 19.9 34.25
M 17.6 3.3
Q 14.8 2.5 10.55 2.5
L 1.25 2.5 1.25 25.3 5.15 25.3 5.15 15.8 10.1 15.8 20.75 25.3 24.6 25.3 14.1 15.7 15.3 15.6
Q 18 15.25 19.85 14.05 22.6 12.3 22.8 9 23 4.85 17.6 3.3
M 5.15 3.6
L 8.55 3.6
Q 19.85 3.6 19.85 8.9 19.85 12.1 16.45 13.65 14.05 14.75 10.95 14.75
L 5.15 14.75 5.15 3.6
M 40 8.15
L 40 6.65 26.1 6.65 26.1 25.4 40.45 25.4 40.45 23.9 29.45 24 29.45 15.9 37.65 15.9 37.65 14.8 29.45 14.8 29.45 7.9 40 8.15
M 78.65 33.8
L 77.15 33.8 75.25 39.6 73.3 33.7 72.15 33.7 70.25 39.6 68.3 33.8 66.8 33.8 69.75 41.75 70.95 41.75 72.85 36 74.75 41.75 75.95 41.75 78.65 33.8
M 58.75 37.1
L 58.75 35 63.25 35 63.25 33.8 57.3 33.8 57.3 41.6 63.25 41.6 63.25 40.4 58.75 40.4 58.75 38.3 62.75 38.3 62.75 37.1 58.75 37.1
M 52.95 33.8
L 51.5 33.8 51.5 39.3 47.3 33.8 46 33.8 46 41.75 47.45 41.75 47.45 36.15 51.75 41.75 52.95 41.75 52.95 33.8
M 74.9 6.65
L 71.65 6.65 71.65 25.4 74.9 25.4 74.9 6.65
M 67.65 6.65
L 64.25 6.65 55.75 22.75 46.25 6.65 43.15 6.65 43.15 25.4 44.65 25.4 44.65 10.65 53.45 25.4 55.8 25.4 64.25 9.4 64.25 25.4 67.65 25.4 67.65 6.65
M 116.9 36.3
Q 116.9 35.25 116.25 34.6 115.45 33.8 113.9 33.8
L 110.5 33.8 110.5 41.75 111.9 41.75 111.9 39 113.6 39 115.5 41.75 117.1 41.75 115 38.75
Q 116.9 38.15 116.9 36.3
M 111.8 35.15
L 113.8 35.15
Q 115.4 35.15 115.4 36.45 115.4 37.75 113.8 37.75
L 111.8 37.75 111.8 35.15
M 98.05 37.75
Q 98.05 39.5 99.15 40.6 100.3 41.8 102.15 41.8 103.9 41.8 105.1 40.6 106.25 39.45 106.25 37.75 106.25 36 105.1 34.85 103.95 33.65 102.15 33.65 100.4 33.65 99.2 34.85 98.05 36.05 98.05 37.75
M 100.2 39.7
Q 99.45 38.9 99.45 37.75 99.45 36.6 100.2 35.8 101 34.95 102.15 34.95 103.35 34.95 104.1 35.75 104.8 36.55 104.8 37.75 104.8 38.95 104.1 39.7 103.35 40.5 102.15 40.5 100.95 40.5 100.2 39.7
M 95.2 33.8
L 93.6 33.8 91.4 37.3 89.25 33.8 87.65 33.8 90.75 38.6 90.75 41.6 92.15 41.6 92.15 38.5 95.2 33.8
M 94.65 6.65
L 94.65 21.15 81.25 6.65 78.75 6.65 78.75 25.4 80.15 25.4 80.15 10.35 94.15 25.4 96.15 25.4 96.15 6.65 94.65 6.65
M 112.55 7.85
Q 112.6 7.85 114.25 8.3
L 114.25 6.7 114.3 6.7
Q 112.65 6.35 109.8 6.35 104.6 6.35 101.35 9.25 98.3 12 98.3 16.15 98.3 20.4 100.95 23 103.9 25.8 109.3 25.8 114.2 25.8 117.25 23.3
L 117.25 16.4 112.4 16.4 113.9 17.8 113.9 23.4
Q 111.8 24.7 109.25 24.7 105.3 24.7 103.2 22.2 101.25 19.95 101.25 16.2 101.25 12.55 103.5 10.15 105.85 7.6 109.75 7.6 111.4 7.6 112.55 7.85
M 149.3 34.4
Q 148.4 33.6 147.1 33.6 145.85 33.6 145.05 34.4 144.25 35.15 144.25 36.3 144.25 37.45 145 38.1 145.8 38.8 147.05 38.8 148.35 38.8 148.9 38 148.9 39 148.45 39.65 147.95 40.45 146.9 40.4 146 40.4 145.1 39.7
L 144.3 40.8
Q 145.4 41.7 146.8 41.7 148.35 41.7 149.3 40.5 150.2 39.3 150.2 37.4 150.2 35.3 149.3 34.4
M 148.45 35.25
Q 148.85 35.7 148.85 36.3 148.85 36.9 148.45 37.35 148 37.75 147.25 37.75 146.5 37.75 146.05 37.35 145.6 36.9 145.6 36.3 145.6 35.7 146.05 35.25 146.5 34.8 147.25 34.8 148 34.8 148.45 35.25
M 157.45 37
L 159.65 34.7 159.65 33.7 154.45 33.7 154.45 34.9 157.85 34.9 155.75 37.2 155.9 38.1 156.55 38.1
Q 158.35 38.1 158.35 39.3 158.35 39.8 157.95 40.15 157.55 40.5 156.95 40.5 155.65 40.5 154.85 39.5
L 153.85 40.45
Q 155.05 41.85 156.95 41.7 158.2 41.7 159 41 159.75 40.35 159.75 39.2 159.75 38.2 159.05 37.6 158.45 37.1 157.45 37
M 127.95 33.8
L 126.25 33.8 122.45 37.8 122.45 33.8 121.05 33.8 121.05 41.8 122.45 41.8 122.45 39.5 123.65 38.25 126.35 41.75 128.05 41.75 124.65 37.25 127.95 33.8
M 137.25 35.5
L 138.6 35.1 138.65 35.1 138.65 41.65 140.05 41.65 140.05 33.75 139.05 33.75 136.9 34.45 137.25 35.5
M 127.4 8
L 135.1 8.15 135.1 6.65 116.4 6.65 116.4 8.15 124.15 8 124.15 25.4 127.4 25.4 127.4 8
M 152.6 9.15
Q 149.5 6.35 144.6 6.35 139.75 6.35 136.65 9.2 133.6 11.95 133.6 16 133.6 20.3 136.25 22.9 139.15 25.75 144.6 25.75 150.1 25.75 152.95 22.9 155.6 20.35 155.6 16 155.6 11.9 152.6 9.15
M 150.65 22.15
Q 148.5 24.65 144.6 24.65 140.65 24.65 138.55 22.15 136.6 19.9 136.6 16.15 136.6 12.55 138.8 10.15 141.05 7.65 144.6 7.65 148.15 7.65 150.4 10.15 152.6 12.55 152.6 16.15 152.55 19.85 150.65 22.15
M 163.35 35
L 167.35 35 163.75 41.6 165.35 41.6 168.85 34.8 168.85 33.8 163.35 33.8 163.35 35
M 180.35 9.1
Q 180.85 8.6 180.85 7.95 180.8 7.25 180.3 6.8 179.85 6.35 179.25 6.35 178.55 6.35 178.1 6.8 177.6 7.25 177.6 7.95 177.6 8.65 178.05 9.1 178.55 9.55 179.25 9.55 179.9 9.55 180.35 9.1
M 180.1 7.1
Q 180.45 7.45 180.45 7.95 180.45 8.35 180.05 8.75
L 180.05 8.8 180.05 8.85 179.95 8.85
Q 179.6 9.15 179.25 9.15 178.75 9.15 178.4 8.8 178.05 8.5 178.05 7.95 178.05 7.45 178.4 7.1 178.75 6.75 179.25 6.75 179.7 6.75 180.1 7.1
M 179.95 8.85
Q 180 8.8 180.05 8.8
L 179.55 8
Q 179.95 7.8 179.95 7.5 179.95 7 179.25 7
L 178.55 7 178.55 8.85 178.85 8.85 178.85 8 179.15 8 179.65 8.85 179.95 8.85
M 179.1 7.7
L 178.8 7.7 178.8 7.2 179.1 7.2
Q 179.5 7.2 179.5 7.4 179.5 7.7 179.1 7.7
M 175.1 6.65
L 173.6 6.65 173.6 21.15 160.25 6.65 157.75 6.65 157.75 25.4 159.1 25.4 159.1 10.35 173.1 25.4 175.1 25.4 175.1 6.65 Z"/>

<path fill="#E22B26" stroke="none" d="
M 197.75 1
L 186.3 1 186.3 47.45 197.75 47.45 197.75 1 Z"/>
</g>
</g>
</g>
</g>
</svg>
